W_COM(0xB0,0x5A);

W_COM(0xB1,0x00);
W_COM(0x89,0x01);
W_COM(0x91,0x17);
W_COM(0xB1,0x03);
W_COM(0x2C,0x28);

W_COM(0x00,0xB3);
W_COM(0x01,0x19);
W_COM(0x02,0x00);
W_COM(0x03,0x00);
W_COM(0x04,0x00);
W_COM(0x05,0x00);
W_COM(0x06,0x00);
W_COM(0x07,0x00);
W_COM(0x08,0x80);
W_COM(0x09,0x04);
W_COM(0x0A,0x0B);
W_COM(0x0B,0x3C);
W_COM(0x0C,0x00);
W_COM(0x0D,0x00);
W_COM(0x0E,0x24);
W_COM(0x0F,0x1C);
W_COM(0x10,0xC9);
W_COM(0x11,0x60);
W_COM(0x12,0x70);
W_COM(0x13,0x01);
W_COM(0x14,0xE3);
W_COM(0x15,0xFF);
W_COM(0x16,0x3D);
W_COM(0x17,0x0E);
W_COM(0x18,0x01);
W_COM(0x19,0x00);
W_COM(0x1A,0x00);
W_COM(0x1B,0xFC);
W_COM(0x1C,0x0B);
W_COM(0x1D,0xA0);
W_COM(0x1E,0x03);
W_COM(0x1F,0x04);
W_COM(0x20,0x0C);
W_COM(0x21,0x00);
W_COM(0x22,0x04);
W_COM(0x23,0x81);
W_COM(0x24,0x1F);
W_COM(0x25,0x10);
W_COM(0x26,0x9B);
W_COM(0x2D,0x01);
W_COM(0x2E,0x84);
W_COM(0x2F,0x00);
W_COM(0x30,0x02);
W_COM(0x31,0x08);
W_COM(0x32,0x01);
W_COM(0x33,0x1C);
W_COM(0x34,0x70);
W_COM(0x35,0xFF);
W_COM(0x36,0xFF);
W_COM(0x37,0xFF);
W_COM(0x38,0xFF);
W_COM(0x39,0xFF);
W_COM(0x3A,0x05);
W_COM(0x3B,0x00);
W_COM(0x3C,0x00);
W_COM(0x3D,0x00);
W_COM(0x3E,0x0F);
W_COM(0x3F,0x8C);
W_COM(0x40,0x28);
W_COM(0x41,0xFC);
W_COM(0x42,0x01);
W_COM(0x43,0x40);
W_COM(0x44,0x05);
W_COM(0x45,0xE8);
W_COM(0x46,0x16);
W_COM(0x47,0x00);
W_COM(0x48,0x00);
W_COM(0x49,0x88);
W_COM(0x4A,0x08);
W_COM(0x4B,0x05);
W_COM(0x4C,0x03);
W_COM(0x4D,0xD0);
W_COM(0x4E,0x13);
W_COM(0x4F,0xFF);
W_COM(0x50,0x0A);
W_COM(0x51,0x53);
W_COM(0x52,0x26);
W_COM(0x53,0x22);
W_COM(0x54,0x09);
W_COM(0x55,0x22);
W_COM(0x56,0x00);
W_COM(0x57,0x1C);
W_COM(0x58,0x03);
W_COM(0x59,0x3F);
W_COM(0x5A,0x28);
W_COM(0x5B,0x01);
W_COM(0x5C,0xCC);
W_COM(0x5D,0xCE);
W_COM(0x5E,0x31);
W_COM(0x5F,0xA6);
W_COM(0x60,0x54);
W_COM(0x61,0x08);
W_COM(0x62,0x21);
W_COM(0x63,0x40);
W_COM(0x64,0x08);
W_COM(0x65,0x00);
W_COM(0x66,0x00);
W_COM(0x67,0x42);
W_COM(0x68,0x18);
W_COM(0x69,0xF3);
W_COM(0x6A,0x5E);
W_COM(0x6B,0x6B);
W_COM(0x6C,0x6B);
W_COM(0x6D,0x85);
W_COM(0x6E,0x10);
W_COM(0x6F,0x42);
W_COM(0x70,0x8C);
W_COM(0x71,0x00);
W_COM(0x72,0x00);
W_COM(0x73,0x40);
W_COM(0x74,0x08);
W_COM(0x75,0x42);
W_COM(0x76,0x81);
W_COM(0x77,0x04);
W_COM(0x78,0x0F);
W_COM(0x79,0xE0);
W_COM(0x7A,0x01);
W_COM(0x7B,0xFF);
W_COM(0x7C,0xFF);
W_COM(0x7D,0xFF);
W_COM(0x7E,0x4F);
W_COM(0x7F,0xFE);


W_COM(0xB1,0x02);

W_COM(0x00,0xFF);
W_COM(0x01,0x01);
W_COM(0x02,0x00);
W_COM(0x03,0x00);
W_COM(0x04,0x00);
W_COM(0x05,0x00);
W_COM(0x06,0x00);
W_COM(0x07,0x00);
W_COM(0x08,0xC0);
W_COM(0x09,0x00);
W_COM(0x0A,0x00);
W_COM(0x0B,0x00);
W_COM(0x0C,0xE6);
W_COM(0x0D,0x0D);
W_COM(0x0F,0x08);
W_COM(0x10,0xE0);
W_COM(0x11,0x28);
W_COM(0x12,0x9E);
W_COM(0x13,0x36);
W_COM(0x14,0x7F);
W_COM(0x15,0x5D);
W_COM(0x16,0xF7);
W_COM(0x17,0x99);
W_COM(0x18,0x93);
W_COM(0x19,0xC5);
W_COM(0x1A,0x22);
W_COM(0x1B,0x08);
W_COM(0x1C,0xFF);
W_COM(0x1D,0xFF);
W_COM(0x1E,0xFF);
W_COM(0x1F,0xFF);
W_COM(0x20,0xFF);
W_COM(0x21,0xFF);
W_COM(0x22,0xFF);
W_COM(0x23,0xFF);
W_COM(0x24,0xFF);
W_COM(0x25,0xFF);
W_COM(0x26,0xFF);
W_COM(0x27,0x1F);
W_COM(0x28,0xDE);
W_COM(0x29,0xDE);
W_COM(0x2A,0xDE);
W_COM(0x2B,0xDE);//E0
W_COM(0x2C,0xFF);
W_COM(0x2D,0x07);
W_COM(0x33,0x06);
W_COM(0x35,0x7F);
W_COM(0x36,0x0E);
W_COM(0x38,0x7F);
W_COM(0x39,0x49);
W_COM(0x3A,0x80);
W_COM(0x3B,0x59);
W_COM(0x3C,0xC2);
W_COM(0x3D,0x32);
W_COM(0x3E,0x00);
W_COM(0x3F,0x58);//8A
W_COM(0x40,0x06);
W_COM(0x41,0x00);
W_COM(0x42,0xCB);
W_COM(0x43,0x2C);
W_COM(0x44,0x61);
W_COM(0x45,0x09);
W_COM(0x46,0x00);
W_COM(0x47,0x00);
W_COM(0x48,0x8B);
W_COM(0x49,0xD2);
W_COM(0x4A,0x01);
W_COM(0x4B,0x00);
W_COM(0x4C,0x10);
W_COM(0x4D,0xC0);
W_COM(0x4E,0x0F);
W_COM(0x4F,0x61);
W_COM(0x50,0x78);
W_COM(0x51,0xDA);
W_COM(0x52,0xB4);
W_COM(0x53,0x79);
W_COM(0x54,0x00);
W_COM(0x55,0x07);
W_COM(0x56,0x14);
W_COM(0x57,0x38);
W_COM(0x58,0x48);
W_COM(0x59,0xE0);
W_COM(0x5A,0xF1);
W_COM(0x5B,0x78);
W_COM(0x5C,0x3C);
W_COM(0x5D,0x1E);
W_COM(0x5E,0x8F);
W_COM(0x5F,0xC7);
W_COM(0x60,0x63);
W_COM(0x61,0x66);
W_COM(0x62,0x36);
W_COM(0x63,0x33);
W_COM(0x64,0x9B);
W_COM(0x65,0xCD);
W_COM(0x66,0x66);
W_COM(0x67,0x33);
W_COM(0x68,0xD8);
W_COM(0x69,0xC0);
W_COM(0x6A,0xC0);
W_COM(0x6B,0x78);
W_COM(0x6C,0x78);
W_COM(0x6D,0x78);
W_COM(0x6E,0x78);
W_COM(0x6F,0x78);
W_COM(0x70,0x3C);
W_COM(0x71,0x1E);
W_COM(0x72,0x0F);
W_COM(0x73,0x00);
W_COM(0x74,0x00);
W_COM(0x75,0x00);
W_COM(0x76,0x00);
W_COM(0x77,0x00);
W_COM(0x78,0x00);
W_COM(0x79,0x00);
W_COM(0x7A,0xCC);
W_COM(0x7B,0xCC);
W_COM(0x7C,0xCC);
W_COM(0x7D,0xCC);
W_COM(0x7E,0xCC);
W_COM(0x7F,0x66);


W_COM(0xB1,0x03);
W_COM(0x2C,0x2C);

W_COM(0xB1,0x00);
W_COM(0x89,0x03);


OTP后外置gama點屏
0xB0  0x5A

0xB1  0x02
0x39  0x40   gama外置，需下code點亮
0xB1  0x03

0x3F  0x8A    XON
打開放電
delay  5ms
0x11
0x91  0x16   插黑画面
delay100ms

0x91  0x17   插黑画面
delay20ms
0x29
