E0 00
E1 93
E2 65
E3 F8
E0 00
70 02
71 23
72 06
80 02
E6 02
E7 02
E0 01
00 00
01 A0
03 00
04 A0
17 00
18 B1
19 00
1A 00
1B B1
1C 00
1F 3E
20 2D
21 2D
22 0E
37 19
38 05
39 08
3A 12
3C 78
3E 80
3F 80
40 06
41 A0
55 0F
56 01
57 69
58 0A
59 0A
5A 28
5B 19
5D 7C
5E 5E
5F 4E
60 41
61 3F
62 31
63 37
64 23
65 3E
66 3F
67 40
68 5E
69 4F
6A 57
6B 4B
6C 49
6D 2F
6E 03
6F 00
70 7C
71 5E
72 4E
73 41
74 3F
75 31
76 37
77 23
78 3E
79 3F
7A 40
7B 5E
7C 4F
7D 57
7E 4B
7F 49
80 2F
81 03
82 00
E0 02
00 47
01 47
02 45
03 45
04 4B
05 4B
06 49
07 49
08 41
09 1F
0A 1F
0B 1F
0C 1F
0D 1F
0E 1F
0F 43
10 1F
11 1F
12 1F
13 1F
14 1F
15 1F
16 46
17 46
18 44
19 44
1A 4A
1B 4A
1C 48
1D 48
1E 40
1F 1F
20 1F
21 1F
22 1F
23 1F
24 1F
25 42
26 1F
27 1F
28 1F
29 1F
2A 1F
2B 1F
58 10
59 00
5A 00
5B 30
5C 03
5D 30
5E 01
5F 02
60 30
61 01
62 02
63 04
64 7F
65 05
66 12
67 73
68 05
69 04
6A 7F
6B 09
6C 00
6D 04
6E 04
6F 88
70 00
71 00
72 06
73 7B
74 00
75 3C
76 00
77 0D
78 2C
79 00
7A 00
7B 00
7C 00
7D 03
7E 7B
E0 01
0E 01
E0 03
98 2F
E0 04
2B 2B
2E 44
09 10
2D 03
E0 00
11
29
35 00
