//========== JD9365  initial setting ==========//
//----------- JD EVB RGB setting -----------------//
JDEVB_RSOX(800);    
JDEVB_RSOY(1280);    
JDEVB_VS(4);
JDEVB_VBP(4);
JDEVB_VFP(16);    
JDEVB_HS(20);
JDEVB_HBP(20);
JDEVB_HFP(20); 
JDEVB_DSILANE(4);    //DSI Lane
JDEVB_PCLK(5);       //Index=6--57.143MHZ, 5--66.67MHz, 7--50MHz    
JDEVB_VCI(3.45);      //VCI Power
JDEVB_IOVCC(1.8);    //IOVCC Power     
JDEVB_SSDIO(3.3);    //SSD_IOVCC Power     
Delayms(1);
//-------------------------------------------------------------//



//JD9365 initial code


//Page0
SSD_Single(0xE0,0x00);

//--- PASSWORD  ----//
SSD_Single(0xE1,0x93);
SSD_Single(0xE2,0x65);
SSD_Single(0xE3,0xF8);
SSD_Single(0x80,0x03);
//SSD_Single(0x70,0x10);	//DC0,DC1
//SSD_Single(0x71,0x13);	//DC2,DC3
//SSD_Single(0x72,0x06);	//DC7

//Page4
SSD_Single(0xE0,0x04);
SSD_Single(0x09,0x10);
SSD_Single(0x2B,0x2B);
SSD_Single(0x2E,0x44);
SSD_Single(0x2D,0x03);//lansel select by internal reg

//--- Page1  ----//
SSD_Single(0xE0,0x01);

//Set VCOM
//SSD_Single(0x00,0x00);
SSD_Single(0x01,0x7B);
//SSD_Single(0x03,0x00);
//SSD_Single(0x04,0x7B);

//Set Gamma Power, VGMP,VGMN,VGSP,VGSN
SSD_Single(0x17,0x00);
SSD_Single(0x18,0xC2);
SSD_Single(0x19,0x01);
SSD_Single(0x1A,0x00);
SSD_Single(0x1B,0xC2);  
SSD_Single(0x1C,0x01);

//Set Gate Power
SSD_Single(0x1F,0x3F);
SSD_Single(0x20,0x24);	
SSD_Single(0x21,0x24);
SSD_Single(0x22,0x0E);

//SET RGBCYC
SSD_Single(0x37,0x09);	//[5:4]ENZ[1:0]=10, [3]SS=1, [0]BGR=1
SSD_Single(0x38,0x04);	//JDT=100 column inversion
SSD_Single(0x39,0x00);	//RGB_N_EQ1, modify 20140806
SSD_Single(0x3A,0x01);	//RGB_N_EQ2, modify 20140806
SSD_Single(0x3C,0x78);	//SET EQ3 for TE_H
SSD_Single(0x3D,0xFF);	//SET CHGEN_ON, modify 20140827 
SSD_Single(0x3E,0xFF);	//SET CHGEN_OFF, modify 20140827 
SSD_Single(0x3F,0xFF);	//SET CHGEN_OFF2, modify 20140827

//Set TCON
SSD_Single(0x40,0x06);	//RSO=800 Pixels
SSD_Single(0x41,0xA0);	//LN=640->1280 line
//SSD_Single(0x43,0x10);	//VFP
//SSD_Single(0x44,0x07);	//VBP
//SSD_Single(0x45,0x28);	//HBP

//--- power voltage  ----//
SSD_Single(0x55,0x0F);	//DCDCM=1111, External pwoer ic
SSD_Single(0x56,0x01);
SSD_Single(0x57,0x69);
SSD_Single(0x58,0x0A);
SSD_Single(0x59,0x2A);	//VCL = -2.9V
SSD_Single(0x5A,0x28);	//VGH = 15V
SSD_Single(0x5B,0x0F);	//VGL = -10V

//--- Gamma  ----//
SSD_Single(0x5D,0x7C);
SSD_Single(0x5E,0x67);
SSD_Single(0x5F,0x55);
SSD_Single(0x60,0x48);
SSD_Single(0x61,0x3E);
SSD_Single(0x62,0x2D);
SSD_Single(0x63,0x30);
SSD_Single(0x64,0x16);
SSD_Single(0x65,0x2C);
SSD_Single(0x66,0x28);
SSD_Single(0x67,0x26);
SSD_Single(0x68,0x42);
SSD_Single(0x69,0x30);
SSD_Single(0x6A,0x38);
SSD_Single(0x6B,0x29);
SSD_Single(0x6C,0x26);
SSD_Single(0x6D,0x1C);
SSD_Single(0x6E,0x0D);
SSD_Single(0x6F,0x00);
SSD_Single(0x70,0x7C);
SSD_Single(0x71,0x69);
SSD_Single(0x72,0x55);
SSD_Single(0x73,0x48);
SSD_Single(0x74,0x3E);
SSD_Single(0x75,0x2D);
SSD_Single(0x76,0x30);
SSD_Single(0x77,0x16);
SSD_Single(0x78,0x2C);
SSD_Single(0x79,0x28);
SSD_Single(0x7A,0x26);
SSD_Single(0x7B,0x42);
SSD_Single(0x7C,0x30);
SSD_Single(0x7D,0x38);
SSD_Single(0x7E,0x29);
SSD_Single(0x7F,0x26);
SSD_Single(0x80,0x1C);
SSD_Single(0x81,0x0D);
SSD_Single(0x82,0x00);

//Page2, for GIP                    
SSD_Single(0xE0,0x02);              
                                    
//GIP_L Pin mapping                 
SSD_Single(0x00,0x09);//L1          
SSD_Single(0x01,0x05);//L2          
SSD_Single(0x02,0x08);//L3          
SSD_Single(0x03,0x04);//L4          
SSD_Single(0x04,0x06);//L5          
SSD_Single(0x05,0x0A);//L6          
SSD_Single(0x06,0x07);//L7          
SSD_Single(0x07,0x0B);//L8          
SSD_Single(0x08,0x00);//L9          
SSD_Single(0x09,0x1F);//L10         
SSD_Single(0x0A,0x1F);//L11         
SSD_Single(0x0B,0x1F);//L12         
SSD_Single(0x0C,0x1F);//L13         
SSD_Single(0x0D,0x1F);//L14         
SSD_Single(0x0E,0x1F);//L15         
SSD_Single(0x0F,0x17);//L16         
SSD_Single(0x10,0x37);//L17         
SSD_Single(0x11,0x1F);//L18         
SSD_Single(0x12,0x1F);//L19         
SSD_Single(0x13,0x1E);//L20         
SSD_Single(0x14,0x10);//L21         
SSD_Single(0x15,0x1F);//L22         
                                    
//GIP_R Pin mapping                 
SSD_Single(0x16,0x09);              
SSD_Single(0x17,0x05);              
SSD_Single(0x18,0x08);              
SSD_Single(0x19,0x04);              
SSD_Single(0x1A,0x06);              
SSD_Single(0x1B,0x0A);              
SSD_Single(0x1C,0x07);              
SSD_Single(0x1D,0x0B);              
SSD_Single(0x1E,0x00);              
SSD_Single(0x1F,0x1F);              
SSD_Single(0x20,0x1F);              
SSD_Single(0x21,0x1F);              
SSD_Single(0x22,0x1F);              
SSD_Single(0x23,0x1F);              
SSD_Single(0x24,0x1F);              
SSD_Single(0x25,0x17);              
SSD_Single(0x26,0x37);              
SSD_Single(0x27,0x1F);              
SSD_Single(0x28,0x1F);              
SSD_Single(0x29,0x1E);              
SSD_Single(0x2A,0x10);              
SSD_Single(0x2B,0x1F);              
                                    
//GIP_L_GS Pin mapping              
//SSD_Single(0x2C,0x06);//L1          
//SSD_Single(0x2D,0x0A);//L2          
//SSD_Single(0x2E,0x07);//L3          
//SSD_Single(0x2F,0x0B);//L4          
//SSD_Single(0x30,0x09);//L5          
//SSD_Single(0x31,0x05);//L6          
//SSD_Single(0x32,0x08);//L7          
//SSD_Single(0x33,0x04);//L8          
//SSD_Single(0x34,0x10);//L9          
//SSD_Single(0x35,0x1F);//L10         
//SSD_Single(0x36,0x1F);//L11         
//SSD_Single(0x37,0x1F);//L12         
//SSD_Single(0x38,0x1F);//L13         
//SSD_Single(0x39,0x1F);//L14         
//SSD_Single(0x3A,0x1F);//L15         
//SSD_Single(0x3B,0x17);//L16         
//SSD_Single(0x3C,0x37);//L17         
//SSD_Single(0x3D,0x1F);//L18         
//SSD_Single(0x3E,0x1E);//L19         
//SSD_Single(0x3F,0x1F);//L20         
//SSD_Single(0x40,0x00);//L21         
//SSD_Single(0x41,0x1F);//L22         
                                    
//GIP_R_GS Pin mapping              
//SSD_Single(0x42,0x06);              
//SSD_Single(0x43,0x0A);              
//SSD_Single(0x44,0x07);              
//SSD_Single(0x45,0x0B);              
//SSD_Single(0x46,0x09);              
//SSD_Single(0x47,0x05);              
//SSD_Single(0x48,0x08);              
//SSD_Single(0x49,0x04);              
//SSD_Single(0x4A,0x10);              
//SSD_Single(0x4B,0x1F);              
//SSD_Single(0x4C,0x1F);              
//SSD_Single(0x4D,0x1F);              
//SSD_Single(0x4E,0x1F);              
//SSD_Single(0x4F,0x1F);              
//SSD_Single(0x50,0x1F);              
//SSD_Single(0x51,0x17);              
//SSD_Single(0x52,0x37);              
//SSD_Single(0x53,0x1F);              
//SSD_Single(0x54,0x1E);              
//SSD_Single(0x55,0x1F);              
//SSD_Single(0x56,0x00);              
//SSD_Single(0x57,0x1F);              
                                    
//GIP Timing                        
SSD_Single(0x58,0x01);//RD 58h= //0x01                
//SSD_Single(0x59,0x00);//RD 59h= //0x00                
//SSD_Single(0x5A,0x00);//RD 5Ah= //0x00                
SSD_Single(0x5B,0x00);//RD 5Bh= //0x00                
SSD_Single(0x5C,0x01);//RD 5Ch= //0x01                
SSD_Single(0x5D,0x70);//RD 5Dh= //0x30                
SSD_Single(0x5E,0x00);//RD 5Eh= //0x00                
SSD_Single(0x5F,0x00);//RD 5Fh= //0x00                
SSD_Single(0x60,0x40);//RD 60h= //0x30                
SSD_Single(0x61,0x00);//RD 61h= //0x00                
SSD_Single(0x62,0x00);//RD 62h= //0x00                
SSD_Single(0x63,0x65);//RD 63h= //0x03                //STV_ON
SSD_Single(0x64,0x65);//RD 64h= //0x6A                //STV_OFF
SSD_Single(0x65,0x45);//RD 65h= //0x45                
SSD_Single(0x66,0x09);//RD 66h= //0x08                
SSD_Single(0x67,0x73);//RD 67h= //0x73                
SSD_Single(0x68,0x05);//RD 68h= //0x05                
SSD_Single(0x69,0x00);//RD 69h= //0x06                //CKV_ON
SSD_Single(0x6A,0x64);//RD 6Ah= //0x6A                //CKV_OFF
SSD_Single(0x6B,0x00);//RD 6Bh= //0x08                
SSD_Single(0x6C,0x00);//RD 6Ch= //                
SSD_Single(0x6D,0x00);//RD 6Dh= //  
SSD_Single(0x6E,0x00);//RD 6Eh= //  
SSD_Single(0x6F,0x88);//RD 6Fh= //  
//SSD_Single(0x70,0x00);//RD 70h= //  
//SSD_Single(0x71,0x00);//RD 71h= //  
//SSD_Single(0x72,0x06);//RD 72h= //  
//SSD_Single(0x73,0x7B);//RD 73h= //  
//SSD_Single(0x74,0x00);//RD 74h= //  
SSD_Single(0x75,0x80);//RD 75h= //  
SSD_Single(0x76,0x00);//RD 76h= //  
SSD_Single(0x77,0x05);//RD 77h= //  
SSD_Single(0x78,0x18);//RD 78h= //0x10 
//SSD_Single(0x79,0x00);//RD 79h= //  
//SSD_Single(0x7A,0x00);//RD 7Ah= //  
//SSD_Single(0x7B,0x00);//RD 7Bh= //  
//SSD_Single(0x7C,0x00);//RD 7Ch= //  
//SSD_Single(0x7D,0x03);//RD 7Dh= //  
//SSD_Single(0x7E,0x7B);//RD 7Eh= // 


//Page0
SSD_Single(0xE0,0x00);
SSD_Single(0xE6,0x02);                 
SSD_Single(0xE7,0x06);                 


//SLP OUT

SSD_CMD(0x11);  	// SLPOUT
Delayms(120);


//DISP ON

SSD_CMD(0x29);  	// DSPON
Delayms(5);
