0xE0 0x00
0xE1 0x93
0xE2 0x65
0xE3 0xF8
0x80 0x03
0xE0 0x04
0x09 0x10
0x2B 0x2B
0x2E 0x44
0x2D 0x03
0xE0 0x01
0x01 0x7B
0x17 0x00
0x18 0xC2
0x19 0x01
0x1A 0x00
0x1B 0xC2
0x1C 0x01
0x1F 0x3F
0x20 0x24
0x21 0x24
0x22 0x0E
0x37 0x09
0x38 0x04
0x39 0x00
0x3A 0x01
0x3C 0x78
0x3D 0xFF
0x3E 0xFF
0x3F 0xFF
0x40 0x06
0x41 0xA0
0x55 0x0F
0x56 0x01
0x57 0x69
0x58 0x0A
0x59 0x2A
0x5A 0x28
0x5B 0x0F
0x5D 0x7C
0x5E 0x67
0x5F 0x55
0x60 0x48
0x61 0x3E
0x62 0x2D
0x63 0x30
0x64 0x16
0x65 0x2C
0x66 0x28
0x67 0x26
0x68 0x42
0x69 0x30
0x6A 0x38
0x6B 0x29
0x6C 0x26
0x6D 0x1C
0x6E 0x0D
0x6F 0x00
0x70 0x7C
0x71 0x69
0x72 0x55
0x73 0x48
0x74 0x3E
0x75 0x2D
0x76 0x30
0x77 0x16
0x78 0x2C
0x79 0x28
0x7A 0x26
0x7B 0x42
0x7C 0x30
0x7D 0x38
0x7E 0x29
0x7F 0x26
0x80 0x1C
0x81 0x0D
0x82 0x00
0xE0 0x02
0x00 0x09
0x01 0x05
0x02 0x08
0x03 0x04
0x04 0x06
0x05 0x0A
0x06 0x07
0x07 0x0B
0x08 0x00
0x09 0x1F
0x0A 0x1F
0x0B 0x1F
0x0C 0x1F
0x0D 0x1F
0x0E 0x1F
0x0F 0x17
0x10 0x37
0x11 0x1F
0x12 0x1F
0x13 0x1E
0x14 0x10
0x15 0x1F
0x16 0x09
0x17 0x05
0x18 0x08
0x19 0x04
0x1A 0x06
0x1B 0x0A
0x1C 0x07
0x1D 0x0B
0x1E 0x00
0x1F 0x1F
0x20 0x1F
0x21 0x1F
0x22 0x1F
0x23 0x1F
0x24 0x1F
0x25 0x17
0x26 0x37
0x27 0x1F
0x28 0x1F
0x29 0x1E
0x2A 0x10
0x2B 0x1F
0x58 0x01
0x5B 0x00
0x5C 0x01
0x5D 0x70
0x5E 0x00
0x5F 0x00
0x60 0x40
0x61 0x00
0x62 0x00
0x63 0x65
0x64 0x65
0x65 0x45
0x66 0x09
0x67 0x73
0x68 0x05
0x69 0x00
0x6A 0x64
0x6B 0x00
0x6C 0x00
0x6D 0x00
0x6E 0x00
0x6F 0x88
0x75 0x80
0x76 0x00
0x77 0x05
0x78 0x18
0xE0 0x00
0xE6 0x02
0xE7 0x06
0x11
0x29
