E0 00
E1 93
E2 65
E3 F8
E0 04
2D 03
E0 00
80 03
70 02
71 23
72 06
E0 01
00 00
01 66
03 00
04 6D
17 00
18 BF
19 00
1A 00
1B BF
1C 00
1F 3E
20 28
21 28
22 0E
37 09
38 04
39 08
3A 12
3C 78
3D FF
3E FF
3F 7F
40 06
41 A0
55 0F
56 01
57 69
58 0A
59 0A
5A 29
5B 15
5D 7C
5E 65
5F 55
60 49
61 44
62 35
63 3A
64 23
65 3D
66 3C
67 3D
68 5D
69 4D
6A 56
6B 48
6C 45
6D 38
6E 25
6F 00
70 7C
71 65
72 55
73 49
74 44
75 35
76 3A
77 23
78 3D
79 3C
7A 3D
7B 5D
7C 4D
7D 56
7E 48
7F 45
80 38
81 25
82 00
E0 02
00 1E
01 1E
02 41
03 41
04 43
05 43
06 1F
07 1F
08 1F
09 1F
0A 1E
0B 1E
0C 1F
0D 47
0E 47
0F 45
10 45
11 4B
12 4B
13 49
14 49
15 1F
16 1E
17 1E
18 40
19 40
1A 42
1B 42
1C 1F
1D 1F
1E 1F
1F 1f
20 1E
21 1E
22 1f
23 46
24 46
25 44
26 44
27 4A
28 4A
29 48
2A 48
2B 1f
2C 1F
2D 1F
2E 42
2F 42
30 40
31 40
32 1E
33 1E
34 1F
35 1F
36 1E
37 1E
38 1F
39 48
3A 48
3B 4A
3C 4A
3D 44
3E 44
3F 46
40 46
41 1F
42 1F
43 1F
44 43
45 43
46 41
47 41
48 1E
49 1E
4A 1E
4B 1F
4C 1E
4D 1E
4E 1F
4F 49
50 49
51 4B
52 4B
53 45
54 45
55 47
56 47
57 1F
58 10
59 00
5A 00
5B 30
5C 02
5D 40
5E 01
5F 02
60 30
61 01
62 02
63 6A
64 6A
65 05
66 12
67 74
68 04
69 6A
6A 6A
6B 08
6C 00
6D 04
6E 04
6F 88
70 00
71 00
72 06
73 7B
74 00
75 07
76 00
77 5D
78 17
79 1F
7A 00
7B 00
7C 00
7D 03
7E 7B
E0 04
2B 2B
2E 44
E0 01
0E 01
E0 03
98 2F
E0 00
E6 02
E7 02
11
29
35 00
